^C:\USERS\PETR\DESKTOP\ZPG\ZPG\ZPG\MATERIAL.CPP
/c /ZI /JMC /nologo /W3 /WX- /diagnostics:column /sdl /Od /D _MBCS /Gm- /EHsc /RTC1 /MDd /GS /fp:precise /permissive- /Zc:wchar_t /Zc:forScope /Zc:inline /Fo"X64\DEBUG\\" /Fd"X64\DEBUG\VC142.PDB" /Gd /TP /FC C:\USERS\PETR\DESKTOP\ZPG\ZPG\ZPG\MATERIAL.CPP
^C:\USERS\PETR\DESKTOP\ZPG\ZPG\ZPG\MODEL.CPP
/c /ZI /JMC /nologo /W3 /WX- /diagnostics:column /sdl /Od /D _MBCS /Gm- /EHsc /RTC1 /MDd /GS /fp:precise /permissive- /Zc:wchar_t /Zc:forScope /Zc:inline /Fo"X64\DEBUG\\" /Fd"X64\DEBUG\VC142.PDB" /Gd /TP /FC C:\USERS\PETR\DESKTOP\ZPG\ZPG\ZPG\MODEL.CPP
^C:\USERS\PETR\DESKTOP\ZPG\ZPG\ZPG\POINTLIGHT.CPP
/c /ZI /JMC /nologo /W3 /WX- /diagnostics:column /sdl /Od /D _MBCS /Gm- /EHsc /RTC1 /MDd /GS /fp:precise /permissive- /Zc:wchar_t /Zc:forScope /Zc:inline /Fo"X64\DEBUG\\" /Fd"X64\DEBUG\VC142.PDB" /Gd /TP /FC C:\USERS\PETR\DESKTOP\ZPG\ZPG\ZPG\POINTLIGHT.CPP
^C:\USERS\PETR\DESKTOP\ZPG\ZPG\ZPG\MOVECOMMAND.CPP
/c /ZI /JMC /nologo /W3 /WX- /diagnostics:column /sdl /Od /D _MBCS /Gm- /EHsc /RTC1 /MDd /GS /fp:precise /permissive- /Zc:wchar_t /Zc:forScope /Zc:inline /Fo"X64\DEBUG\\" /Fd"X64\DEBUG\VC142.PDB" /Gd /TP /FC C:\USERS\PETR\DESKTOP\ZPG\ZPG\ZPG\MOVECOMMAND.CPP
^C:\USERS\PETR\DESKTOP\ZPG\ZPG\ZPG\FILELOGGERDECORATOR.CPP
/c /ZI /JMC /nologo /W3 /WX- /diagnostics:column /sdl /Od /D _MBCS /Gm- /EHsc /RTC1 /MDd /GS /fp:precise /permissive- /Zc:wchar_t /Zc:forScope /Zc:inline /Fo"X64\DEBUG\\" /Fd"X64\DEBUG\VC142.PDB" /Gd /TP /FC C:\USERS\PETR\DESKTOP\ZPG\ZPG\ZPG\FILELOGGERDECORATOR.CPP
^C:\USERS\PETR\DESKTOP\ZPG\ZPG\ZPG\GLINFO.CPP
/c /ZI /JMC /nologo /W3 /WX- /diagnostics:column /sdl /Od /D _MBCS /Gm- /EHsc /RTC1 /MDd /GS /fp:precise /permissive- /Zc:wchar_t /Zc:forScope /Zc:inline /Fo"X64\DEBUG\\" /Fd"X64\DEBUG\VC142.PDB" /Gd /TP /FC C:\USERS\PETR\DESKTOP\ZPG\ZPG\ZPG\GLINFO.CPP
^C:\USERS\PETR\DESKTOP\ZPG\ZPG\ZPG\ILOGGER.CPP
/c /ZI /JMC /nologo /W3 /WX- /diagnostics:column /sdl /Od /D _MBCS /Gm- /EHsc /RTC1 /MDd /GS /fp:precise /permissive- /Zc:wchar_t /Zc:forScope /Zc:inline /Fo"X64\DEBUG\\" /Fd"X64\DEBUG\VC142.PDB" /Gd /TP /FC C:\USERS\PETR\DESKTOP\ZPG\ZPG\ZPG\ILOGGER.CPP
^C:\USERS\PETR\DESKTOP\ZPG\ZPG\ZPG\INPUTCONTEXT.CPP
/c /ZI /JMC /nologo /W3 /WX- /diagnostics:column /sdl /Od /D _MBCS /Gm- /EHsc /RTC1 /MDd /GS /fp:precise /permissive- /Zc:wchar_t /Zc:forScope /Zc:inline /Fo"X64\DEBUG\\" /Fd"X64\DEBUG\VC142.PDB" /Gd /TP /FC C:\USERS\PETR\DESKTOP\ZPG\ZPG\ZPG\INPUTCONTEXT.CPP
^C:\USERS\PETR\DESKTOP\ZPG\ZPG\ZPG\INPUTCONTEXTFACTORY.CPP
/c /ZI /JMC /nologo /W3 /WX- /diagnostics:column /sdl /Od /D _MBCS /Gm- /EHsc /RTC1 /MDd /GS /fp:precise /permissive- /Zc:wchar_t /Zc:forScope /Zc:inline /Fo"X64\DEBUG\\" /Fd"X64\DEBUG\VC142.PDB" /Gd /TP /FC C:\USERS\PETR\DESKTOP\ZPG\ZPG\ZPG\INPUTCONTEXTFACTORY.CPP
^C:\USERS\PETR\DESKTOP\ZPG\ZPG\ZPG\INPUTCONTROLLER.CPP
/c /ZI /JMC /nologo /W3 /WX- /diagnostics:column /sdl /Od /D _MBCS /Gm- /EHsc /RTC1 /MDd /GS /fp:precise /permissive- /Zc:wchar_t /Zc:forScope /Zc:inline /Fo"X64\DEBUG\\" /Fd"X64\DEBUG\VC142.PDB" /Gd /TP /FC C:\USERS\PETR\DESKTOP\ZPG\ZPG\ZPG\INPUTCONTROLLER.CPP
^C:\USERS\PETR\DESKTOP\ZPG\ZPG\ZPG\KEYBOADGESTURE.CPP
/c /ZI /JMC /nologo /W3 /WX- /diagnostics:column /sdl /Od /D _MBCS /Gm- /EHsc /RTC1 /MDd /GS /fp:precise /permissive- /Zc:wchar_t /Zc:forScope /Zc:inline /Fo"X64\DEBUG\\" /Fd"X64\DEBUG\VC142.PDB" /Gd /TP /FC C:\USERS\PETR\DESKTOP\ZPG\ZPG\ZPG\KEYBOADGESTURE.CPP
^C:\USERS\PETR\DESKTOP\ZPG\ZPG\ZPG\KEYBOARD.CPP
/c /ZI /JMC /nologo /W3 /WX- /diagnostics:column /sdl /Od /D _MBCS /Gm- /EHsc /RTC1 /MDd /GS /fp:precise /permissive- /Zc:wchar_t /Zc:forScope /Zc:inline /Fo"X64\DEBUG\\" /Fd"X64\DEBUG\VC142.PDB" /Gd /TP /FC C:\USERS\PETR\DESKTOP\ZPG\ZPG\ZPG\KEYBOARD.CPP
^C:\USERS\PETR\DESKTOP\ZPG\ZPG\ZPG\LOGGERFACTORY.CPP
/c /ZI /JMC /nologo /W3 /WX- /diagnostics:column /sdl /Od /D _MBCS /Gm- /EHsc /RTC1 /MDd /GS /fp:precise /permissive- /Zc:wchar_t /Zc:forScope /Zc:inline /Fo"X64\DEBUG\\" /Fd"X64\DEBUG\VC142.PDB" /Gd /TP /FC C:\USERS\PETR\DESKTOP\ZPG\ZPG\ZPG\LOGGERFACTORY.CPP
^C:\USERS\PETR\DESKTOP\ZPG\ZPG\ZPG\MAIN.CPP
/c /ZI /JMC /nologo /W3 /WX- /diagnostics:column /sdl /Od /D _MBCS /Gm- /EHsc /RTC1 /MDd /GS /fp:precise /permissive- /Zc:wchar_t /Zc:forScope /Zc:inline /Fo"X64\DEBUG\\" /Fd"X64\DEBUG\VC142.PDB" /Gd /TP /FC C:\USERS\PETR\DESKTOP\ZPG\ZPG\ZPG\MAIN.CPP
^C:\USERS\PETR\DESKTOP\ZPG\ZPG\ZPG\MESH.CPP
/c /ZI /JMC /nologo /W3 /WX- /diagnostics:column /sdl /Od /D _MBCS /Gm- /EHsc /RTC1 /MDd /GS /fp:precise /permissive- /Zc:wchar_t /Zc:forScope /Zc:inline /Fo"X64\DEBUG\\" /Fd"X64\DEBUG\VC142.PDB" /Gd /TP /FC C:\USERS\PETR\DESKTOP\ZPG\ZPG\ZPG\MESH.CPP
^C:\USERS\PETR\DESKTOP\ZPG\ZPG\ZPG\MOUSE.CPP
/c /ZI /JMC /nologo /W3 /WX- /diagnostics:column /sdl /Od /D _MBCS /Gm- /EHsc /RTC1 /MDd /GS /fp:precise /permissive- /Zc:wchar_t /Zc:forScope /Zc:inline /Fo"X64\DEBUG\\" /Fd"X64\DEBUG\VC142.PDB" /Gd /TP /FC C:\USERS\PETR\DESKTOP\ZPG\ZPG\ZPG\MOUSE.CPP
^C:\USERS\PETR\DESKTOP\ZPG\ZPG\ZPG\MOUSEBUTTONGESTURE.CPP
/c /ZI /JMC /nologo /W3 /WX- /diagnostics:column /sdl /Od /D _MBCS /Gm- /EHsc /RTC1 /MDd /GS /fp:precise /permissive- /Zc:wchar_t /Zc:forScope /Zc:inline /Fo"X64\DEBUG\\" /Fd"X64\DEBUG\VC142.PDB" /Gd /TP /FC C:\USERS\PETR\DESKTOP\ZPG\ZPG\ZPG\MOUSEBUTTONGESTURE.CPP
^C:\USERS\PETR\DESKTOP\ZPG\ZPG\ZPG\PRIMITIVESFACTORY.CPP
/c /ZI /JMC /nologo /W3 /WX- /diagnostics:column /sdl /Od /D _MBCS /Gm- /EHsc /RTC1 /MDd /GS /fp:precise /permissive- /Zc:wchar_t /Zc:forScope /Zc:inline /Fo"X64\DEBUG\\" /Fd"X64\DEBUG\VC142.PDB" /Gd /TP /FC C:\USERS\PETR\DESKTOP\ZPG\ZPG\ZPG\PRIMITIVESFACTORY.CPP
^C:\USERS\PETR\DESKTOP\ZPG\ZPG\ZPG\POINT.CPP
/c /ZI /JMC /nologo /W3 /WX- /diagnostics:column /sdl /Od /D _MBCS /Gm- /EHsc /RTC1 /MDd /GS /fp:precise /permissive- /Zc:wchar_t /Zc:forScope /Zc:inline /Fo"X64\DEBUG\\" /Fd"X64\DEBUG\VC142.PDB" /Gd /TP /FC C:\USERS\PETR\DESKTOP\ZPG\ZPG\ZPG\POINT.CPP
^C:\USERS\PETR\DESKTOP\ZPG\ZPG\ZPG\RENDERER.CPP
/c /ZI /JMC /nologo /W3 /WX- /diagnostics:column /sdl /Od /D _MBCS /Gm- /EHsc /RTC1 /MDd /GS /fp:precise /permissive- /Zc:wchar_t /Zc:forScope /Zc:inline /Fo"X64\DEBUG\\" /Fd"X64\DEBUG\VC142.PDB" /Gd /TP /FC C:\USERS\PETR\DESKTOP\ZPG\ZPG\ZPG\RENDERER.CPP
^C:\USERS\PETR\DESKTOP\ZPG\ZPG\ZPG\ROTATECOMMAD.CPP
/c /ZI /JMC /nologo /W3 /WX- /diagnostics:column /sdl /Od /D _MBCS /Gm- /EHsc /RTC1 /MDd /GS /fp:precise /permissive- /Zc:wchar_t /Zc:forScope /Zc:inline /Fo"X64\DEBUG\\" /Fd"X64\DEBUG\VC142.PDB" /Gd /TP /FC C:\USERS\PETR\DESKTOP\ZPG\ZPG\ZPG\ROTATECOMMAD.CPP
^C:\USERS\PETR\DESKTOP\ZPG\ZPG\ZPG\ROTATION.CPP
/c /ZI /JMC /nologo /W3 /WX- /diagnostics:column /sdl /Od /D _MBCS /Gm- /EHsc /RTC1 /MDd /GS /fp:precise /permissive- /Zc:wchar_t /Zc:forScope /Zc:inline /Fo"X64\DEBUG\\" /Fd"X64\DEBUG\VC142.PDB" /Gd /TP /FC C:\USERS\PETR\DESKTOP\ZPG\ZPG\ZPG\ROTATION.CPP
^C:\USERS\PETR\DESKTOP\ZPG\ZPG\ZPG\SCENE.CPP
/c /ZI /JMC /nologo /W3 /WX- /diagnostics:column /sdl /Od /D _MBCS /Gm- /EHsc /RTC1 /MDd /GS /fp:precise /permissive- /Zc:wchar_t /Zc:forScope /Zc:inline /Fo"X64\DEBUG\\" /Fd"X64\DEBUG\VC142.PDB" /Gd /TP /FC C:\USERS\PETR\DESKTOP\ZPG\ZPG\ZPG\SCENE.CPP
^C:\USERS\PETR\DESKTOP\ZPG\ZPG\ZPG\SCENEFACTORY.CPP
/c /ZI /JMC /nologo /W3 /WX- /diagnostics:column /sdl /Od /D _MBCS /Gm- /EHsc /RTC1 /MDd /GS /fp:precise /permissive- /Zc:wchar_t /Zc:forScope /Zc:inline /Fo"X64\DEBUG\\" /Fd"X64\DEBUG\VC142.PDB" /Gd /TP /FC C:\USERS\PETR\DESKTOP\ZPG\ZPG\ZPG\SCENEFACTORY.CPP
^C:\USERS\PETR\DESKTOP\ZPG\ZPG\ZPG\SCENEOBJECT.CPP
/c /ZI /JMC /nologo /W3 /WX- /diagnostics:column /sdl /Od /D _MBCS /Gm- /EHsc /RTC1 /MDd /GS /fp:precise /permissive- /Zc:wchar_t /Zc:forScope /Zc:inline /Fo"X64\DEBUG\\" /Fd"X64\DEBUG\VC142.PDB" /Gd /TP /FC C:\USERS\PETR\DESKTOP\ZPG\ZPG\ZPG\SCENEOBJECT.CPP
^C:\USERS\PETR\DESKTOP\ZPG\ZPG\ZPG\SELECTCOMMAND.CPP
/c /ZI /JMC /nologo /W3 /WX- /diagnostics:column /sdl /Od /D _MBCS /Gm- /EHsc /RTC1 /MDd /GS /fp:precise /permissive- /Zc:wchar_t /Zc:forScope /Zc:inline /Fo"X64\DEBUG\\" /Fd"X64\DEBUG\VC142.PDB" /Gd /TP /FC C:\USERS\PETR\DESKTOP\ZPG\ZPG\ZPG\SELECTCOMMAND.CPP
^C:\USERS\PETR\DESKTOP\ZPG\ZPG\ZPG\SHADER.CPP
/c /ZI /JMC /nologo /W3 /WX- /diagnostics:column /sdl /Od /D _MBCS /Gm- /EHsc /RTC1 /MDd /GS /fp:precise /permissive- /Zc:wchar_t /Zc:forScope /Zc:inline /Fo"X64\DEBUG\\" /Fd"X64\DEBUG\VC142.PDB" /Gd /TP /FC C:\USERS\PETR\DESKTOP\ZPG\ZPG\ZPG\SHADER.CPP
^C:\USERS\PETR\DESKTOP\ZPG\ZPG\ZPG\SHADERLOADER.CPP
/c /ZI /JMC /nologo /W3 /WX- /diagnostics:column /sdl /Od /D _MBCS /Gm- /EHsc /RTC1 /MDd /GS /fp:precise /permissive- /Zc:wchar_t /Zc:forScope /Zc:inline /Fo"X64\DEBUG\\" /Fd"X64\DEBUG\VC142.PDB" /Gd /TP /FC C:\USERS\PETR\DESKTOP\ZPG\ZPG\ZPG\SHADERLOADER.CPP
^C:\USERS\PETR\DESKTOP\ZPG\ZPG\ZPG\SHADERPIPELINE.CPP
/c /ZI /JMC /nologo /W3 /WX- /diagnostics:column /sdl /Od /D _MBCS /Gm- /EHsc /RTC1 /MDd /GS /fp:precise /permissive- /Zc:wchar_t /Zc:forScope /Zc:inline /Fo"X64\DEBUG\\" /Fd"X64\DEBUG\VC142.PDB" /Gd /TP /FC C:\USERS\PETR\DESKTOP\ZPG\ZPG\ZPG\SHADERPIPELINE.CPP
^C:\USERS\PETR\DESKTOP\ZPG\ZPG\ZPG\SHADERPIPELINEFACTORY.CPP
/c /ZI /JMC /nologo /W3 /WX- /diagnostics:column /sdl /Od /D _MBCS /Gm- /EHsc /RTC1 /MDd /GS /fp:precise /permissive- /Zc:wchar_t /Zc:forScope /Zc:inline /Fo"X64\DEBUG\\" /Fd"X64\DEBUG\VC142.PDB" /Gd /TP /FC C:\USERS\PETR\DESKTOP\ZPG\ZPG\ZPG\SHADERPIPELINEFACTORY.CPP
^C:\USERS\PETR\DESKTOP\ZPG\ZPG\ZPG\SHADERPIPELINEREPOSITORY.CPP
/c /ZI /JMC /nologo /W3 /WX- /diagnostics:column /sdl /Od /D _MBCS /Gm- /EHsc /RTC1 /MDd /GS /fp:precise /permissive- /Zc:wchar_t /Zc:forScope /Zc:inline /Fo"X64\DEBUG\\" /Fd"X64\DEBUG\VC142.PDB" /Gd /TP /FC C:\USERS\PETR\DESKTOP\ZPG\ZPG\ZPG\SHADERPIPELINEREPOSITORY.CPP
^C:\USERS\PETR\DESKTOP\ZPG\ZPG\ZPG\SIZE.CPP
/c /ZI /JMC /nologo /W3 /WX- /diagnostics:column /sdl /Od /D _MBCS /Gm- /EHsc /RTC1 /MDd /GS /fp:precise /permissive- /Zc:wchar_t /Zc:forScope /Zc:inline /Fo"X64\DEBUG\\" /Fd"X64\DEBUG\VC142.PDB" /Gd /TP /FC C:\USERS\PETR\DESKTOP\ZPG\ZPG\ZPG\SIZE.CPP
^C:\USERS\PETR\DESKTOP\ZPG\ZPG\ZPG\TEXTREADER.CPP
/c /ZI /JMC /nologo /W3 /WX- /diagnostics:column /sdl /Od /D _MBCS /Gm- /EHsc /RTC1 /MDd /GS /fp:precise /permissive- /Zc:wchar_t /Zc:forScope /Zc:inline /Fo"X64\DEBUG\\" /Fd"X64\DEBUG\VC142.PDB" /Gd /TP /FC C:\USERS\PETR\DESKTOP\ZPG\ZPG\ZPG\TEXTREADER.CPP
^C:\USERS\PETR\DESKTOP\ZPG\ZPG\ZPG\TEXTURE.CPP
/c /ZI /JMC /nologo /W3 /WX- /diagnostics:column /sdl /Od /D _MBCS /Gm- /EHsc /RTC1 /MDd /GS /fp:precise /permissive- /Zc:wchar_t /Zc:forScope /Zc:inline /Fo"X64\DEBUG\\" /Fd"X64\DEBUG\VC142.PDB" /Gd /TP /FC C:\USERS\PETR\DESKTOP\ZPG\ZPG\ZPG\TEXTURE.CPP
^C:\USERS\PETR\DESKTOP\ZPG\ZPG\ZPG\TEXTURELOADER.CPP
/c /ZI /JMC /nologo /W3 /WX- /diagnostics:column /sdl /Od /D _MBCS /Gm- /EHsc /RTC1 /MDd /GS /fp:precise /permissive- /Zc:wchar_t /Zc:forScope /Zc:inline /Fo"X64\DEBUG\\" /Fd"X64\DEBUG\VC142.PDB" /Gd /TP /FC C:\USERS\PETR\DESKTOP\ZPG\ZPG\ZPG\TEXTURELOADER.CPP
^C:\USERS\PETR\DESKTOP\ZPG\ZPG\ZPG\TEXTWRITER.CPP
/c /ZI /JMC /nologo /W3 /WX- /diagnostics:column /sdl /Od /D _MBCS /Gm- /EHsc /RTC1 /MDd /GS /fp:precise /permissive- /Zc:wchar_t /Zc:forScope /Zc:inline /Fo"X64\DEBUG\\" /Fd"X64\DEBUG\VC142.PDB" /Gd /TP /FC C:\USERS\PETR\DESKTOP\ZPG\ZPG\ZPG\TEXTWRITER.CPP
^C:\USERS\PETR\DESKTOP\ZPG\ZPG\ZPG\TRANSFORMATION.CPP
/c /ZI /JMC /nologo /W3 /WX- /diagnostics:column /sdl /Od /D _MBCS /Gm- /EHsc /RTC1 /MDd /GS /fp:precise /permissive- /Zc:wchar_t /Zc:forScope /Zc:inline /Fo"X64\DEBUG\\" /Fd"X64\DEBUG\VC142.PDB" /Gd /TP /FC C:\USERS\PETR\DESKTOP\ZPG\ZPG\ZPG\TRANSFORMATION.CPP
^C:\USERS\PETR\DESKTOP\ZPG\ZPG\ZPG\VERTEXLAYOUT.CPP
/c /ZI /JMC /nologo /W3 /WX- /diagnostics:column /sdl /Od /D _MBCS /Gm- /EHsc /RTC1 /MDd /GS /fp:precise /permissive- /Zc:wchar_t /Zc:forScope /Zc:inline /Fo"X64\DEBUG\\" /Fd"X64\DEBUG\VC142.PDB" /Gd /TP /FC C:\USERS\PETR\DESKTOP\ZPG\ZPG\ZPG\VERTEXLAYOUT.CPP
^C:\USERS\PETR\DESKTOP\ZPG\ZPG\ZPG\VIEWPORT.CPP
/c /ZI /JMC /nologo /W3 /WX- /diagnostics:column /sdl /Od /D _MBCS /Gm- /EHsc /RTC1 /MDd /GS /fp:precise /permissive- /Zc:wchar_t /Zc:forScope /Zc:inline /Fo"X64\DEBUG\\" /Fd"X64\DEBUG\VC142.PDB" /Gd /TP /FC C:\USERS\PETR\DESKTOP\ZPG\ZPG\ZPG\VIEWPORT.CPP
^C:\USERS\PETR\DESKTOP\ZPG\ZPG\ZPG\WINDOW.CPP
/c /ZI /JMC /nologo /W3 /WX- /diagnostics:column /sdl /Od /D _MBCS /Gm- /EHsc /RTC1 /MDd /GS /fp:precise /permissive- /Zc:wchar_t /Zc:forScope /Zc:inline /Fo"X64\DEBUG\\" /Fd"X64\DEBUG\VC142.PDB" /Gd /TP /FC C:\USERS\PETR\DESKTOP\ZPG\ZPG\ZPG\WINDOW.CPP
